/Users/kstromeiraos/Git/smart-city-api/src/main/java/com/mycompany/smartcityapi/MetaService.java
/Users/kstromeiraos/Git/smart-city-api/src/main/java/vo/response/ResponseContainerWithMeta.java
/Users/kstromeiraos/Git/smart-city-api/src/main/java/utils/MySQLConnection.java
/Users/kstromeiraos/Git/smart-city-api/src/main/java/org/netbeans/rest/application/config/ApplicationConfig.java
/Users/kstromeiraos/Git/smart-city-api/src/main/java/com/mycompany/smartcityapi/TramService.java
/Users/kstromeiraos/Git/smart-city-api/src/main/java/utils/MySQLPool.java
/Users/kstromeiraos/Git/smart-city-api/src/main/java/vo/vos/Position.java
/Users/kstromeiraos/Git/smart-city-api/src/main/java/com/mycompany/smartcityapi/AccessService.java
/Users/kstromeiraos/Git/smart-city-api/src/main/java/com/mycompany/smartcityapi/BagsService.java
/Users/kstromeiraos/Git/smart-city-api/src/main/java/vo/response/ResponseContainer.java
